{
    "quicklinks":[
        {
            "title":"decuro",
            "url":"http://www.decuro.de/",
            "thumbnail":"logo_decuro.png",
            "logobg":"bg_decuro.9.png",
            "nightModeMask": "night.9.png",
            "favicon":"",
	    "displayName": "decuro",
	    "isDelete": true,
	    "movable": true,
	    "position": 0
        },
        {
            "title":"Google",
            "url":"http://www.google.com/",
            "thumbnail":"logo_google.png",
            "logobg":"bg_google.9.png",
            "nightModeMask": "night.9.png",
            "favicon":"",
	    "displayName": "Google",
	    "isDelete": true,
	    "movable": true,
	    "position": 1
        },
        {
            "title":"Picasa",
            "url":"http://picasaweb.google.com/",
            "thumbnail":"logo_picasar.png",
            "logobg":"bg_picasa.9.png",
            "nightModeMask": "night.9.png",
            "favicon":"",
	    "displayName": "Picasa",
	    "isDelete": true,
	    "movable": true,
	    "position": 2
        },
        {
            "title":"Yahoo!",
            "url":"http://www.yahoo.com/",
            "thumbnail":"logo_yahoo.png",
            "logobg":"bg_yahoo.9.png",
            "nightModeMask": "night.9.png",
            "favicon":"",
	    "displayName": "Yahoo!",
	    "isDelete": true,
	    "movable": true,
	    "position": 3
        },
        {
            "title":"MSN",
            "url":"http://www.msn.com/",
            "thumbnail":"logo_msn.png",
            "logobg":"bg_msn.9.png",
            "nightModeMask": "night.9.png",
            "favicon":"",
	    "displayName": "MSN",
	    "isDelete": true,
	    "movable": true,
	    "position": 4
        },
        {
            "title":"Twitter",
            "url":"http://twitter.com/",
            "thumbnail":"logo_twitter.png",
            "logobg":"bg_twitter.9.png",
            "nightModeMask": "night.9.png",
            "favicon":"",
	    "displayName": "Twitter",
	    "isDelete": true,
	    "movable": true,
	    "position": 5
        },
        {
            "title":"Facebook",
            "url":"http://www.facebook.com/",
            "thumbnail":"logo_facebook.png",
            "logobg":"bg_facebook.9.png",
            "nightModeMask": "night.9.png",
            "favicon":"",
	    "displayName": "Facebook",
	    "isDelete": true,
	    "movable": true,
	    "position": 6
        },
        {
            "title":"Wikipedia",
            "url":"http://www.wikipedia.org/",
            "thumbnail":"logo_wiki.png",
            "logobg":"bg_wiki.9.png",
            "nightModeMask": "night.9.png",
            "favicon":"",
	    "displayName": "Wikipedia",
	    "isDelete": true,
	    "movable": true,
	    "position": 7
        },
        {
            "title":"eBay",
            "url":"http://www.ebay.com/",
            "thumbnail":"logo_ebay.png",
            "logobg":"bg_ebay.9.png",
            "nightModeMask": "night.9.png",
            "favicon":"",
	    "displayName": "eBay",
	    "isDelete": true,
	    "movable": true,
	    "position": 8
        },

        {
            "title":"CNN",
            "url":"http://www.cnn.com/",
            "thumbnail":"logo_cnn.png",
            "logobg":"bg_cnn.9.png",
            "nightModeMask": "night.9.png",
            "favicon":"",
	    "displayName": "CNN",
	    "isDelete": true,
	    "movable": true,
	    "position": 9
        },
        {
            "title":"MIUI BBS",
            "url":"http://en.miui.com",
            "thumbnail":"logo_miui.png",
            "logobg":"bg_miui.9.png",
            "nightModeMask": "night.9.png",
            "favicon":"",
	    "displayName": "MIUI BBS",
	    "isDelete": true,
	    "movable": true,
	    "position": 10
        },
        {
            "title":"ESPN",
            "url":"http://espn.com/",
            "thumbnail":"logo_espn.png",
            "logobg":"bg_espn.9.png",
            "nightModeMask": "night.9.png",
            "favicon":"",
	    "displayName": "ESPN",
	    "isDelete": true,
	    "movable": true,
	    "position": 11
        },

        {
            "title":"Weather Channel",
            "url":"http://www.weather.com/",
            "thumbnail":"logo_the_weather.png",
            "logobg":"bg_the_weather.9.png",
            "nightModeMask": "night.9.png",
            "favicon":"",
	    "displayName": "Weather Channel",
	    "isDelete": true,
	    "movable": true,
	    "position": 12
        }
    ],
"topquicklinks": [
                             {
            "title":"decuro",
            "url":"http://www.decuro.de/",
            "thumbnail":"logo_decuro.png",
            "logobg":"bg_decuro.9.png",
            "nightModeMask": "night.9.png",
            "favicon":"",
	    "displayName": "decuro",
	    "isDelete": true,
	    "movable": true,
	    "position": 0
        },
        {
            "title":"Google",
            "url":"http://www.google.com/",
            "thumbnail":"logo_google.png",
            "logobg":"bg_google.9.png",
            "nightModeMask": "night.9.png",
            "favicon":"",
	    "displayName": "Google",
	    "isDelete": true,
	    "movable": true,
	    "position": 1
        },
        {
            "title":"Picasa",
            "url":"http://picasaweb.google.com/",
            "thumbnail":"logo_picasar.png",
            "logobg":"bg_picasa.9.png",
            "nightModeMask": "night.9.png",
            "favicon":"",
	    "displayName": "Picasa",
	    "isDelete": true,
	    "movable": true,
	    "position": 2
        },
        {
            "title":"Yahoo!",
            "url":"http://www.yahoo.com/",
            "thumbnail":"logo_yahoo.png",
            "logobg":"bg_yahoo.9.png",
            "nightModeMask": "night.9.png",
            "favicon":"",
	    "displayName": "Yahoo!",
	    "isDelete": true,
	    "movable": true,
	    "position": 3
        },
        {
            "title":"MSN",
            "url":"http://www.msn.com/",
            "thumbnail":"logo_msn.png",
            "logobg":"bg_msn.9.png",
            "nightModeMask": "night.9.png",
            "favicon":"",
	    "displayName": "MSN",
	    "isDelete": true,
	    "movable": true,
	    "position": 4
        },
        {
            "title":"Twitter",
            "url":"http://twitter.com/",
            "thumbnail":"logo_twitter.png",
            "logobg":"bg_twitter.9.png",
            "nightModeMask": "night.9.png",
            "favicon":"",
	    "displayName": "Twitter",
	    "isDelete": true,
	    "movable": true,
	    "position": 5
        },
        {
            "title":"Facebook",
            "url":"http://www.facebook.com/",
            "thumbnail":"logo_facebook.png",
            "logobg":"bg_facebook.9.png",
            "nightModeMask": "night.9.png",
            "favicon":"",
	    "displayName": "Facebook",
	    "isDelete": true,
	    "movable": true,
	    "position": 6
        },
        {
            "title":"Wikipedia",
            "url":"http://www.wikipedia.org/",
            "thumbnail":"logo_wiki.png",
            "logobg":"bg_wiki.9.png",
            "nightModeMask": "night.9.png",
            "favicon":"",
	    "displayName": "Wikipedia",
	    "isDelete": true,
	    "movable": true,
	    "position": 7
        },
        {
            "title":"eBay",
            "url":"http://www.ebay.com/",
            "thumbnail":"logo_ebay.png",
            "logobg":"bg_ebay.9.png",
            "nightModeMask": "night.9.png",
            "favicon":"",
	    "displayName": "eBay",
	    "isDelete": true,
	    "movable": true,
	    "position": 8
        },

        {
            "title":"CNN",
            "url":"http://www.cnn.com/",
            "thumbnail":"logo_cnn.png",
            "logobg":"bg_cnn.9.png",
            "nightModeMask": "night.9.png",
            "favicon":"",
	    "displayName": "CNN",
	    "isDelete": true,
	    "movable": true,
	    "position": 9
        },
        {
            "title":"MIUI BBS",
            "url":"http://en.miui.com",
            "thumbnail":"logo_miui.png",
            "logobg":"bg_miui.9.png",
            "nightModeMask": "night.9.png",
            "favicon":"",
	    "displayName": "MIUI BBS",
	    "isDelete": true,
	    "movable": true,
	    "position": 10
        },
        {
            "title":"ESPN",
            "url":"http://espn.com/",
            "thumbnail":"logo_espn.png",
            "logobg":"bg_espn.9.png",
            "nightModeMask": "night.9.png",
            "favicon":"",
	    "displayName": "ESPN",
	    "isDelete": true,
	    "movable": true,
	    "position": 11
        },

        {
            "title":"Weather Channel",
            "url":"http://www.weather.com/",
            "thumbnail":"logo_the_weather.png",
            "logobg":"bg_the_weather.9.png",
            "nightModeMask": "night.9.png",
            "favicon":"",
	    "displayName": "Weather Channel",
	    "isDelete": true,
	    "movable": true,
	    "position": 12
        }
    ]
}
